<?xml version="1.0" encoding="utf-8"?>
<!-- Generator: Adobe Illustrator 20.0.0, SVG Export Plug-In . SVG Version: 6.00 Build 0)  -->
<svg version="1.1" id="Warstwa_1" xmlns="http://www.w3.org/2000/svg" xmlns:xlink="http://www.w3.org/1999/xlink" x="0px" y="0px"
	 viewBox="0 0 72 72" style="enable-background:new 0 0 72 72;" xml:space="preserve">
<style type="text/css">
	.st0{fill:#FFFFFF;}
</style>
<path id="Kształt_107" class="st0" d="M67.9,16H57.1c-2.2,0-4-1.8-4.1-4c0-1.4,0.8-2.7,2-3.3C54.9,7.3,56,6.1,57.4,6
	c0.2,0,0.5,0,0.7,0c2.2-2.5,6-2.7,8.4-0.6c0.8,0.7,1.4,1.6,1.7,2.6c2.2,0.1,3.9,1.9,3.8,4.1C72,14.4,70.1,16.1,67.9,16z M72,48.7
	C71.9,57.2,65.1,64,56.6,64H15.4C6.9,64,0.1,57.2,0,48.7c0-5.5,3.3-10.1,7.7-12.8c0-5.7,4.6-10.2,10.3-10.2c0.4,0,0.7,0.1,1,0.2
	c8.2-9.4,22.4-10.5,31.9-2.3c3.1,2.7,5.4,6.2,6.7,10.1C65.6,34,71.9,40.6,72,48.7z M56.9,37.7l-2.2,0.1l-0.5-2
	C52.1,27.7,44.8,22,36.4,22c-5.7,0.1-11.1,2.7-14.7,7.2l-1,1.3l-1.6-0.4c-0.4-0.1-0.8-0.2-1.2-0.2c-2.9,0-6,2.3-6,5.1
	c0,0.1,0,0.3,0.1,0.7l0.2,1.9l-1.8,0.7C6.6,40.2,4.1,44.1,4,48.5C4,54.2,9.4,60,15.1,60h40.9C61.6,60,68,54.4,68,48.9
	s-4.9-11.3-10.6-11.3C57.6,37.6,57.5,37.6,56.9,37.7z M38,52.8l2.7-4.8h-3.6l4.2-7h3.6l3.4-5.9c3.2,5.7,2.6,12.9-1.5,17.9H38V52.8z
	 M31,53h-8.8c-4.1-5-4.7-12.2-1.5-17.9l5.7,9.8L32.6,34h9.2L31,53L31,53z M38.6,7h-6.3C31.1,7,30,6,30,4.7c0-0.8,0.5-1.6,1.2-1.9
	c0-0.9,0.7-1.6,1.6-1.6c0.1,0,0.1,0,0.2,0c1.3-1.4,3.4-1.6,4.9-0.3c0.5,0.4,0.8,0.9,1,1.5c1.3,0.1,2.3,1.2,2.2,2.5
	C40.9,6.1,39.9,7,38.6,7L38.6,7z M12.6,20H3.4C1.6,20,0,18.5,0,16.7c0-1.2,0.7-2.2,1.7-2.8c0-1.2,1-2.2,2.3-2.2c0.1,0,0.2,0,0.2,0
	C5.2,10.6,6.6,10,8,10c2.2,0,4.1,1.4,4.8,3.4c1.8,0.1,3.2,1.5,3.2,3.3C16,18.5,14.4,20,12.6,20L12.6,20z"/>
</svg>
