<?xml version="1.0" encoding="utf-8"?>
<!-- Generator: Adobe Illustrator 20.0.0, SVG Export Plug-In . SVG Version: 6.00 Build 0)  -->
<svg version="1.1" id="Warstwa_1" xmlns="http://www.w3.org/2000/svg" xmlns:xlink="http://www.w3.org/1999/xlink" x="0px" y="0px"
	 viewBox="0 0 72 68" style="enable-background:new 0 0 72 68;" xml:space="preserve">
<style type="text/css">
	.st0{fill-rule:evenodd;clip-rule:evenodd;fill:#FFFFFF;}
</style>
<path class="st0" d="M66,68v-4h4v4H66z M66,56h4v4h-4V56z M66,48h4v4h-4V48z M66,40h4v4h-4V40z M66,32h4v4h-4V32z M66,24h4v4h-4V24z
	 M66,16h4v4h-4V16z M66,8h4v4h-4V8z M66,0h4v4h-4V0z M58,64h4v4h-4V64z M58,0h4v4h-4V0z M50,0h4v4h-4V0z M46,10h14v14h-4v-7.1l-8,8
	V36v4v10v4v14H2V54v-4V40v-4V22h43.1l8-8H46V10z M6,64h38V54H6V64z M44,26H6v10h38V26z M6,40v10h38V40H6z M18,44h2v2h-2V44z M14,44
	h2v2h-2V44z M10,44h2v2h-2V44z M12,32h-2v-2h2V32z M16,32h-2v-2h2V32z M20,32h-2v-2h2V32z M18,60v-2h2v2H18z M14,58h2v2h-2V58z
	 M10,58h2v2h-2V58z M42,0h4v4h-4V0z M34,0h4v4h-4V0z M26,0h4v4h-4V0z M18,0h4v4h-4V0z M10,0h4v4h-4V0z M2,16h4v4H2V16z M2,8h4v4H2V8
	z M2,0h4v4H2V0z M54,68h-4v-4h4V68z"/>
</svg>
